<svg style="width:24px;height:24px" viewBox="0 0 24 24">
    <path fill="currentColor" d="M19.92,12.08L12,20L4.08,12.08L5.5,10.67L11,16.17V2H13V16.17L18.5,10.66L19.92,12.08M12,20H2V22H22V20H12Z" />
</svg>
