<svg viewBox="0 0 24 24" style="width:24px;height:24px" xmlns="http://www.w3.org/2000/svg">
  <path fill="currentColor" d="M19,19H5V8H19M16,1V3H8V1H6V3H5C3.89,3 3,3.89 3,5V19A2,2 0 0,0 5,21H19A2,2 0 0,0 21,19V5C21,3.89 20.1,3 19,3H18V1"/>
  <path d="M 8.965 9.994 L 10.235 9.994 C 10.988 9.994 11.365 10.344 11.365 11.044 L 11.365 16.444 C 11.365 17.151 10.988 17.504 10.235 17.504 L 9.005 17.504 C 8.252 17.504 7.875 17.151 7.875 16.444 L 7.875 15.164 L 8.955 15.164 L 8.955 16.284 C 8.955 16.424 8.978 16.517 9.025 16.564 C 9.065 16.604 9.162 16.624 9.315 16.624 L 9.925 16.624 C 10.072 16.624 10.165 16.604 10.205 16.564 C 10.252 16.517 10.275 16.424 10.275 16.284 L 10.275 14.434 L 8.965 14.434 C 8.225 14.434 7.855 14.077 7.855 13.364 L 7.855 11.044 C 7.855 10.344 8.225 9.994 8.965 9.994 Z M 9.295 13.584 L 10.275 13.584 L 10.275 11.214 C 10.275 11.074 10.252 10.981 10.205 10.934 C 10.165 10.887 10.072 10.864 9.925 10.864 L 9.295 10.864 C 9.148 10.864 9.052 10.887 9.005 10.934 C 8.958 10.981 8.935 11.074 8.935 11.214 L 8.935 13.234 C 8.935 13.367 8.958 13.457 9.005 13.504 C 9.052 13.557 9.148 13.584 9.295 13.584 ZM 14.951 16.284 L 14.951 11.214 C 14.951 11.074 14.928 10.981 14.881 10.934 C 14.834 10.887 14.738 10.864 14.591 10.864 L 13.951 10.864 C 13.804 10.864 13.708 10.887 13.661 10.934 C 13.621 10.981 13.601 11.074 13.601 11.214 L 13.601 16.284 C 13.601 16.424 13.621 16.517 13.661 16.564 C 13.708 16.604 13.804 16.624 13.951 16.624 L 14.591 16.624 C 14.738 16.624 14.834 16.604 14.881 16.564 C 14.928 16.517 14.951 16.424 14.951 16.284 Z M 16.051 11.044 L 16.051 16.444 C 16.051 17.151 15.678 17.504 14.931 17.504 L 13.621 17.504 C 12.868 17.504 12.491 17.151 12.491 16.444 L 12.491 11.044 C 12.491 10.344 12.868 9.994 13.621 9.994 L 14.931 9.994 C 15.678 9.994 16.051 10.344 16.051 11.044 Z" transform="matrix(1, 0, 0, 1, 0, 0)" style="fill: rgb(51, 51, 51); white-space: pre;"/>
</svg>