<svg viewBox="0 0 24 24" style="width:24px;height:24px" xmlns="http://www.w3.org/2000/svg">
  <path fill="currentColor" d="M19,19H5V8H19M16,1V3H8V1H6V3H5C3.89,3 3,3.89 3,5V19A2,2 0 0,0 5,21H19A2,2 0 0,0 21,19V5C21,3.89 20.1,3 19,3H18V1"/>
  <path d="M 8.861 9.994 L 10.821 9.994 L 10.821 17.504 L 9.721 17.504 L 9.721 10.864 L 8.861 10.864 L 8.861 9.994 ZM 12.821 11.214 L 12.821 12.444 L 11.741 12.444 L 11.741 11.044 C 11.741 10.344 12.114 9.994 12.861 9.994 L 13.891 9.994 C 14.644 9.994 15.021 10.344 15.021 11.044 L 15.021 11.804 C 15.021 12.364 14.881 12.911 14.601 13.444 L 12.981 16.624 L 15.061 16.624 L 15.061 17.504 L 11.751 17.504 L 11.751 16.664 L 13.591 13.204 C 13.811 12.784 13.921 12.304 13.921 11.764 L 13.921 11.214 C 13.921 11.074 13.901 10.981 13.861 10.934 C 13.814 10.887 13.714 10.864 13.561 10.864 L 13.181 10.864 C 13.034 10.864 12.938 10.887 12.891 10.934 C 12.844 10.981 12.821 11.074 12.821 11.214 Z" transform="matrix(1, 0, 0, 1, 0, 0)" style="fill: rgb(51, 51, 51); white-space: pre;"/>
</svg>