<svg viewBox="0 0 24 24" style="width:24px;height:24px" xmlns="http://www.w3.org/2000/svg">
  <path fill="currentColor" d="M19,19H5V8H19M16,1V3H8V1H6V3H5C3.89,3 3,3.89 3,5V19A2,2 0 0,0 5,21H19A2,2 0 0,0 21,19V5C21,3.89 20.1,3 19,3H18V1"/>
  <path d="M 8.58 9.994 L 10.54 9.994 L 10.54 17.504 L 9.44 17.504 L 9.44 10.864 L 8.58 10.864 L 8.58 9.994 ZM 14.84 15.124 L 15.52 15.124 L 15.52 16.014 L 14.84 16.014 L 14.84 17.504 L 13.8 17.504 L 13.8 16.014 L 11.23 16.014 L 11.23 15.114 L 13.39 9.994 L 14.47 9.994 L 12.26 15.124 L 13.8 15.124 L 13.8 13.684 L 14.84 13.684 L 14.84 15.124 Z" transform="matrix(1, 0, 0, 1, 0, 0)" style="fill: rgb(51, 51, 51); white-space: pre;"/>
</svg>