<svg viewBox="0 0 24 24" style="width:24px;height:24px" xmlns="http://www.w3.org/2000/svg">
  <path fill="currentColor" d="M19,19H5V8H19M16,1V3H8V1H6V3H5C3.89,3 3,3.89 3,5V19A2,2 0 0,0 5,21H19A2,2 0 0,0 21,19V5C21,3.89 20.1,3 19,3H18V1"/>
  <path d="M 10.001 11.214 L 10.001 12.444 L 8.921 12.444 L 8.921 11.044 C 8.921 10.344 9.294 9.994 10.041 9.994 L 11.071 9.994 C 11.824 9.994 12.201 10.344 12.201 11.044 L 12.201 11.804 C 12.201 12.364 12.061 12.911 11.781 13.444 L 10.161 16.624 L 12.241 16.624 L 12.241 17.504 L 8.931 17.504 L 8.931 16.664 L 10.771 13.204 C 10.991 12.784 11.101 12.304 11.101 11.764 L 11.101 11.214 C 11.101 11.074 11.081 10.981 11.041 10.934 C 10.994 10.887 10.894 10.864 10.741 10.864 L 10.361 10.864 C 10.214 10.864 10.118 10.887 10.071 10.934 C 10.024 10.981 10.001 11.074 10.001 11.214 ZM 12.797 9.994 L 14.757 9.994 L 14.757 17.504 L 13.657 17.504 L 13.657 10.864 L 12.797 10.864 L 12.797 9.994 Z" transform="matrix(1, 0, 0, 1, 0, 0)" style="fill: rgb(51, 51, 51); white-space: pre;"/>
</svg>