{
	"00": {
		"001": "Willkommen",
		"002": "Herzlich willkommen bei UBPM, dem Universellen Blutdruck Manager für Windows, Linux und MacOS!",
		"003": "Mit diesem Programm können Sie Ihre Blutdruckdaten bequem am heimischen Computer verwalten ohne private Informationen über Ihren Gesundheitszustand an Firmen zu übermitteln und im Internet preiszugeben.<p>Datensätze können manuell <a href='01-04.html'>eingegeben</a>, aus einer Datei <a href='02-01.html'>eingelesen</a> oder direkt aus dem Blutdruckmessgerät <a href='01-03.html'>ausgelesen</a> werden.<p>Folgende Messgeräte werden derzeit unterstützt:",
		"004": "Hersteller",
		"005": "Modell",
		"006": "Bezeichnung",
		"007": "Schnittstelle",
		"008": "Weitere Messgeräte können über die <a href='03.html'>Erweiterungsschnittstelle</a> hinzugefügt werden.<p>Falls Sie ein noch nicht unterstütztes Messgerät besitzen, dessen Übertragungsprotokoll kennen und programmieren können kann ich gerne bei der Entwicklung behilflich sein. Sollten Sie bereits eine Erweiterung programmiert haben und diese anderen Benutzern zur Verfügung stellen möchten kontaktieren Sie mich bitte.<p>Auch wenn Sie selbst nicht programmieren können, das Programm aber nützlich finden, dürfen Sie die weitere Entwicklung gern durch eine kleine Spende unterstützen. Diese kann z.B. zum Kauf und Einbindung weiterer Messgeräte verwendet werden. Auch ausgesonderte und bisher nicht unterstützte Messgeräte, welche vielleicht defekt sind aber immer noch am Computer erkannt werden, sind willkommen. Vielen Dank!<p>Informieren Sie sich nun auf den nächsten Seiten über das Programm und seine Funktionen.<p>Interaktive <font color='blue'><u>Verweise</u></font> werden blau, <font color='green'>Hinweise</font> grün, <font color='red'>Warnungen</font> rot und <font color='brown'>Konfigurationen</font> braun dargestellt…"
	},
	"01": {
		"001": "Oberfläche",
		"002": "Das Programm besteht aus dem Hauptfenster sowie verschiedenen Dialogen, welche bestimmte Funktionen bereitstellen.<p>Wählen Sie den Punkt aus, über welchen Sie mehr erfahren möchten:<br>",
		"003": "Hauptfenster",
		"004": "Einstellungen",
		"005": "Import von Gerät",
		"006": "Import von Eingabe",
		"007": "Daten Analyse",
		"008": "Online Aktualisierung"
	},
	"01-01": {
		"001": "Hauptfenster",
		"002": "Hier haben Sie den Überblick über Ihre gesammelten Blutdruckdaten. Die Bedienoberfläche wurde möglichst einfach gestaltet, damit sich auch ältere Benutzer schnell zurecht finden.<p>Alle wichtigen Funktionen sind bequem über die Werkzeugleiste erreichbar. Seltener benötigte Funktionen können über die Menüleiste erreicht werden.<p>Das Hauptfenster ist in 3 Ansichten unterteilt:",
		"003": "Diagramm",
		"004": "Tabelle",
		"005": "Statistik",
		"006": "Sofern die Daten eines Partners ebenfalls verwaltet werden, kann die Auswertung über die Symbole für Nutzer (<font color='red'>A/B</font>) in der Werkzeugleiste umgeschaltet werden. Das LCD (<font color='red'>C</font>) zeigt die Anzahl aller Datensätze für den aktuell gewählten Nutzer an.<p>Der bevorzugte Zeitmodus wird über das Symbol (<font color='red'>D</font>) daneben eingestellt. So kann z.B. \"Wöchentlich\" (Montag - Sonntag) oder \"Letzte 7 Tage\" (z.B. Mittwoch - Dienstag) angezeigt werden.<p>Über die Datum- und Zeit-Auswahl (<font color='red'>E</font>) kann direkt zum gewünschten Tag bzw. der gewünschten Stunde gesprungen werden.<p>Über die Knöpfe am unteren Rand kann ansonsten der gewünschte Zeitraum festgelegt und dann über das Mausrad oder die Rückwärts/Vorwärts Knöpfe (<font color='red'>F/G</font>) am oberen Rand gewechselt werden."
	},
	"01-01-01": {
		"001": "Diagramm-Ansicht",
		"002": "In dieser Ansicht werden die Daten für den gewählten Nutzer und Zeitraum als Diagramm dargestellt:",
		"003": "Die Normwerte werden durch rote (Herzschlag), grüne (diastolischer Blutdruck) und blaue (systolischer Blutdruck) Bereiche eingegrenzt.<p>Durch verweilen mit der Maus über einem Messpunkt werden der Zeitpunkt der Messung, die Daten für den systolischen & diastolischen Blutdruck sowie den Pulsdruck, die Herzfrequenz und ein optionaler Kommentar eingeblendet.",
		"004": "Durch Anklicken eines Messpunktes kann dieser gelöscht, ausgeblendet oder bearbeitet werden.",
		"005": "Ein Rechtsklick öffnet das Kontextmenü, dessen Bedeutung unter <a href='01-02-04.html'>Einstellungen</a> näher erläutert wird."
	},
	"01-01-02": {
		"001": "Tabellen-Ansicht",
		"002": "In dieser Ansicht werden die Daten für den gewählten Nutzer und Zeitraum als Tabelle dargestellt:",
		"003": "Durch Anklicken des jeweiligen Spaltenkopfes kann die Sortierreihenfolge entsprechend angepasst werden, z.B. nach Herzschlag aufsteigend.<p>Doppelklicken eines Feldes in einer Zeile erlaubt die Änderung dieses Wertes.<p>Durch Rechtsklicken einer Zeile kann über das Kontextmenü der Datensatz gelöscht sowie aus- oder wieder eingeblendet werden. Versteckte Datensätze werden in der Diagramm- und Statistik-Ansicht ignoriert."
	},
	"01-01-03": {
		"001": "Statistik-Ansicht",
		"002": "In dieser Ansicht werden die Daten für den gewählten Nutzer und Zeitraum als Statistik dargestellt:",
		"003": "Durch Anklicken des letzten Balkens im Wertebereich kann zwischen Durchschnitt und Median umgeschaltet werden.<p>Durch Anklicken eines beliebigen Kreissegmentes wird dieses hervorgehoben und die Beschriftung umgeschaltet.<p>Durch Anklicken der unteren Legende kann die Darstellung komplett getauscht werden.<p>Ein Rechtsklick öffnet das Kontextmenü, dessen Bedeutung unter <a href='01-02-06.html'>Einstellungen</a> näher erläutert wird."
	},
	"01-02": {
		"001": "Einstellungen",
		"002": "Alle Einstellungen können hier zentral verwaltet und konfiguriert werden. Verweilen Sie mit dem Mauszeiger über einer Option um eine kurze Beschreibung anzuzeigen.<p>Die Einstellungen sind in folgende Bereiche unterteilt:",
		"003": "Nachdem alles nach Ihren Wünschen angepasst wurde können Sie die Konfiguration über den Knopf \"Speichern\" sichern und den Dialog verlassen. Die Standardwerte der aktuellen Ansicht können über \"Zurücksetzen\" wiederhergestellt werden. Wurden Änderungen vorgenommen und der Dialog ohne zu speichern verlassen werden wird zur Sicherheit nochmal abgefragt, ob diese wirklich verworfen werden sollen.<p><h4>Aufbau der Konfigurationsdatei</h4>Alle Einstellungen werden in der Konfigurationsdatei \"ubpm.cfg\" im Heimatverzeichnis des Nutzers unter \".config/LazyT\" abgelegt. Die Datei ist im Textformat und hat folgenden Aufbau:",
		"004": "Die jeweiligen Standardwerte sind in ( ), Freitextwerte mit % angegeben."
	},
	"01-02-01": {
		"001": "Datenbank",
		"002": "Hier werden alle Datenbank relevanten Einstellungen vorgenommen:",
		"003": "Die Datenbank enthält alle Datensätze für beide Benutzer.<p>Falls der Standardpfad geändert werden soll wählen Sie hier den gewünschten Pfad aus.<p>Die Datenbank kann optional auch verschlüsselt werden. Aktivieren Sie dazu die Option und geben ein Passwort ein. Kontrollieren Sie das Passwort über den Knopf neben der Eingabe zur Sicherheit!<p class='warn'><b>Achtung</b>: Vergessen Sie dieses Passwort nie, denn ohne dieses ist kein Zugriff auf die Datenbank mehr möglich!<p>Eine verschlüsselte Datenbank sollte z.B. dann gewählt werden, falls diese in einer öffentlichen Cloud gesichert werden soll."
	},
	"01-02-02": {
		"001": "Benutzer",
		"002": "Hier werden alle Benutzer relevanten Einstellungen vorgenommen:",
		"003": "Zur Klassifizierung der Messwerte geben Sie hier das Geschlecht und die Altersgruppe an. Falls auf dem Ausdruck Ihr richtiger Name erscheinen soll geben Sie diesen ebenfalls ein.<p>Zur besseren Einordnung der Messwerte durch den Arzt können Sie auch noch weitere Informationen angeben. Aktivieren Sie dazu die Option und ergänzen Geburtsjahr, Größe und Gewicht.<p>Soll auch Ihr Partner verwaltet werden schalten Sie nun auf Nutzer 2 um und geben die Angaben für diesen ebenfalls ein."
	},
	"01-02-03": {
		"001": "Gerät",
		"002": "Hier werden alle Geräte relevanten Einstellungen vorgenommen:",
		"003": "Sofern Sie über ein unterstütztes Messgerät verfügen können Sie dieses hier zum direkten Auslesen der Messwerte aktivieren. Es werden dann einige Informationen zum gewählten Messgerät angezeigt, über welche Sie die Webseite des Herstellers aufrufen oder den Betreuer der Erweiterung per E-Mail kontaktieren können.<p>Sollten Sie sich nicht sicher sein, ob das Messgerät das Richtige ist können Sie sich dessen Bild anzeigen lassen und mit Ihrem vergleichen.<p>Weiterhin haben Sie so gleich Zugriff auf das Handbuch des Messgerätes."
	},
	"01-02-04": {
		"001": "Diagramm",
		"002": "Hier werden alle Diagramm relevanten Einstellungen vorgenommen:",
		"003": "Legen Sie fest, ob die X-Achse sich dynamisch den Messwerten anpassen oder immer statisch bei 200 enden soll. Die Dynamik hat den Vorteil, dass kleinere Bereiche besser unterscheidbar sind.<p>Weiterhin können farbige Bereiche zur Orientierung der Messwerte ein- oder ausgeblendet werden. Die Schwellwerte dafür können in den folgenden Registerkarten festgelegt werden.<p>Ob die Messwerte als interaktive Symbole (zur Löschung oder Infonanzeige) erscheinen sollen kann ebenfalls festgelegt werden.<p>Für den Ausdruck kann eingestellt werden, ob die Herzfrequenz mit dargestellt werden soll.<p class='info'><b>Hinweis</b>: Diese Einstellungen können auch direkt im Hauptfenster durch einen Rechtsklick geändert werden.",
		"004": "Die Schwellwerte für Blutdruck und Herzfrequenz können hier pro Benutzer angepasst werden."
	},
	"01-02-05": {
		"001": "Tabelle",
		"002": "Hier werden alle Tabellen relevanten Einstellungen vorgenommen:",
		"003": "Überschreiten Ihre Messwerte einen bestimmten Schwellwert werden diese in der Ansicht und im Ausdruck rot markiert.<p>Hier können Sie diese Schwellwerte bei Bedarf nach unten oder oben anpassen. Die voreingestellten Schwellwerte sollten im Normalfall nicht verändert werden."
	},
	"01-02-06": {
		"001": "Statistik",
		"002": "Hier werden alle Statistik relevanten Einstellungen vorgenommen:",
		"003": "Soll statt dem Mittelwert lieber der Medianwert angezeigt werden kann dies hier umgeschaltet werden.<p>Weiterhin kann festgelegt werden, ob die Legende am unteren Rand die Werte oder die Beschreibungen anzeigen soll.<p class='info'><b>Hinweis</b>: Diese Einstellungen können auch direkt im Hauptfenster durch einen Rechtsklick geändert werden.</p><h4>Mittelwert</h4>Der Mittelwert wird durch Addition aller Messwerte und anschließender Division der Summe durch die Anzahl der Messwerte berechnet. Er ist dadurch anfällig gegenüber Ausreißern.<p>Beispiel: 5 Messwerte mit 130, 120, 190, 120, 120<p> Ergeben als Summe 680 geteilt durch die Anzahl 5 das Ergebnis 136. Also einen Wert, welcher eigentlich nie gemessen und durch den 190er Ausreißer verfälscht wurde.<h4>Medianwert</h4>Der Medianwert ist der Messwert, welcher in der Mitte steht, wenn man die Messwerte der Größe nach sortiert. Sein Vorteil ist die Robustheit gegenüber Ausreißern.<p>Beispiel: 5 Messwerte mit 130, 120, 190, 120, 120<p>Aufsteigend sortiert 120, 120, 120, 130, 190 ergeben durch den Wert in der Mitte das Ergebnis 120. Also einen Wert, welcher wirklich gemessen wurde und auch am häufigsten auftrat."
	},
	"01-02-07": {
		"001": "Aktualisierung",
		"002": "Hier werden alle Aktualisierung relevanten Einstellungen vorgenommen:",
		"003": "Bei jedem Programmstart kann automatisch geprüft werden, ob eine neue Version bereitgestellt wurde.<p>Soll nur bei positivem Ergebnis eine Information angezeigt werden deaktivieren Sie die untere Option. Dadurch werden allerdings auch alle Warn- oder Fehlermeldungen unterdrückt!<p class='info'><b>Hinweis</b>: Die Prüfung kann auch jederzeit manuell über die Menüleiste aufgerufen werden und zeigt dann Info-, Warn- sowie Fehlermeldungen immer an."
	},
	"01-03": {
		"001": "Import von Gerät",
		"002": "Blutdruckwerte können direkt aus dem Messgerät ausgelesen werden, sofern dieses über eine entsprechende Schnittstelle verfügt und eine Erweiterung verfügbar ist:",
		"003": "Eine Erweiterung kann vom jeweiligen Betreuer frei gestaltet werden und daher von Gerät zu Gerät unterschiedlich aussehen. In der Abbildung ist die Erweiterung für das Omron M400IT / M500IT zu sehen.<p>Nach dem Start werden die ausgelesenen Informationen des Messgerätes angezeigt. Der Datenimport kann über den Knopf \"Importieren\" gestartet und über \"Abbrechen\" unterbrochen werden. Der aktuelle Status wird über den Fortschrittsbalken angezeigt.<p>Zur Fehlersuche kann auf Wunsch eine Log-Datei mitgeschrieben werden. Diese wird im TEMP-Verzeichnis unter dem Namen \"ubpm-import.log\" angelegt und enthält die gesamte Kommunikation zwischen Programm und Messgerät.<p>Nach Abschluss des Imports wird der Dialog automatisch geschlossen und eine kurze Zusammenfassung über die Anzahl der ausgelesenen Datensätze, deren Aufteilung auf Nutzer 1 und 2 sowie die ignorierten (z.B. bereits bekannten) Werte angezeigt.<p class='info'><b>Hinweis</b>: Falls ein USB-Messgerät unter Linux nur als root benutzt werden kann bitte eine udev-Regel erstellen:",
		"004": "Datei <b>\"/etc/udev/rules.d/60-ubpm.rules\"</b> als root erstellen (Hersteller-ID 0590 und Geräte-ID 0090 mit eigenen Werten ersetzen!)",
		"005": "Messgerät vom Computer trennen und wieder verbinden"
	},
	"01-04": {
		"001": "Import von Eingabe",
		"002": "Möchten Sie einen oder mehrere Messwerte manuell eingeben können Sie dies hier tun:",
		"003": "Bei einer größeren Anzahl an Werten sollte stattdessen besser der <a href='02-01.html'>Import über eine Datei</a> bevorzugt werden.<p>Stellen Sie den gewünschten Zeitpunkt ein und geben Sie die einzelnen Blutdruckwerte ein. Legen Sie weiterhin fest, ob die Messung Unregelmäßigkeiten aufwies und geben Sie bei Bedarf noch einen Kommentar zur Messung ein.<p>Über den Knopf \"Erstellen\" kann der Datensatz nun erzeugt oder mit \"Löschen\" auch wieder entfernt werden.<p>Bei der Eingabe mehrerer Werte kann die Info-Option deaktiviert werden, um nicht ständig das Ergebnis bestätigen zu müssen."
	},
	"01-05": {
		"001": "Daten Analyse",
		"002": "Um gezielt Datensätze auswerten zu können kann eine SQL-Abfrage gestartet werden:",
		"003": "Wählen Sie dazu eine der vordefinierten SQL-Abfragen aus oder geben eine eigene Abfrage ein und bestätigen Sie diese mit der RETURN-Taste.<p>Das Ergebnis Ihrer Anfrage wird nun ausgegeben oder eine Fehlermeldung angezeigt. Bei einer Fehlermeldung ändern Sie die Abfrageparameter solange bis passende Datensätze gefunden werden.<p>Folgende Abfragen können ausgewertet werden:<br>",
		"004": "Parameter",
		"005": "Bedeutung",
		"006": "Systolischer Blutdruck",
		"007": "Diastolischer Blutdruck",
		"008": "Pulsdruck",
		"009": "Herzschlag",
		"010": "Unregelmäßiger Herzschlag",
		"011": "Unsichtbar",
		"012": "Kommentar",
		"013": "Datum",
		"014": "Zeit",
		"015": "Durch Anklicken des jeweiligen Spaltenkopfes kann die Sortierreihenfolge entsprechend angepasst werden, z.B. nach Herzschlag aufsteigend.",
		"016": "Bewegung"
	},
	"01-06": {
		"001": "Online Aktualisierung",
		"002": "Wurde bei der Aktualisierungsprüfung eine neue Version gefunden erscheint folgender Hinweis:",
		"003": "Unter Details sind alle wichtigen Informationen bezüglich neuer Funktionen oder behobener Probleme aufgeführt. Sie können so entscheiden, ob die Aktualisierung durchgeführt oder ignoriert werden soll.<p>Durch die Wahl von \"Herunterladen\" wird die neue Version geladen und der aktuelle Fortschritt angezeigt. Der Vorgang kann bei Bedarf jederzeit abgebrochen werden. Nach der Fertigstellung kann die neue Version nach Rückfrage automatisch aus dem Download-Verzeichnis gestartet werden. Kopieren Sie bei Bedarf das Update später manuell in ein anderes Verzeichnis.<p class='info'><b>Hinweis</b>: Es werden keine Daten zum Server übermittelt sondern nur eine kleine JSON-Datei geladen, welche die Versionsinformationen enthält!"
	},
	"02": {
		"001": "Datenverwaltung",
		"002": "Datensätze können <a href='02-01.html'>importiert</a>, <a href='02-02.html'>exportiert</a> sowie <a href='02-03.html'>ausgedruckt</a> werden."
	},
	"02-01": {
		"001": "Daten Importieren",
		"002": "Messwerte können über verschiedene Wege in das Programm gelangen: manuelle <a href='01-04.html'>Eingabe</a>, aus einer <a href='02-01-01.html'>CSV</a>, <a href='02-01-02.html'>XML</a>, <a href='02-01-03.html'>JSON</a> oder <a href='02-01-04.html'>SQL</a> Datei sowie direkt aus einem unterstützten <a href='01-03.html'>Messgerät</a>.<p><h4>Import von Eingabe</h4>Die manuelle Eingabe bietet sich an, wenn z.B. eine externe Messung beim Arzt nachgetragen werden soll.<h4>Import aus Datei</h4>Der Import aus einer Datei wird nur selten benötigt, z.B. wenn das Programm zum ersten Mal benutzt wird und noch Daten von einer anderen Quelle eingelesen oder ein Backup nach einer Neuinstallation wiederhergestellt werden soll.<p>Wählen Sie im Import-Dialog den Pfad, welcher die zu importierende Datei enthält. Standardmäßig ist der Dokumente-Pfad voreingestellt.<p>Wählen Sie anschließend den gewünschten Dateityp CSV, XML, JSON oder SQL aus. Nun sollten alle dem Dateityp entsprechenden Dateien im gewählten Ordner angezeigt werden. Öffnen Sie die gewünschte Datei zum Import.<p>Nach Abschluss des Imports wird der Dialog automatisch geschlossen und eine kurze Zusammenfassung über die Anzahl der ausgelesenen Datensätze, deren Aufteilung auf Nutzer 1 und 2 sowie die ignorierten (z.B. bereits bekannten) Werte angezeigt.<h4>Import von Messgerät</h4>Im normalen Betrieb sollten die Daten direkt vom Messgerät importiert und an die bereits vorhandenen angehangen werden. Auf diese Weise erreichen Sie eine kontinuierliche Aufzeichnung über beliebig lange Zeiträume, obwohl das Messgerät selbst nur über limitierte Speicherplätze pro Nutzer verfügt."
	},
	"02-01-01": {
		"001": "Import von CSV",
		"002": "Eine CSV-Datei muss wie folgt aufgebaut sein:",
		"003": "Beginnt eine Zeile mit einer \"1\" ist sie für Nutzer 1, eine \"2\" steht für Nutzer 2 (USER).<p>Datum (DATE) und Zeit (TIME) folgen in der Form TT.MM.JJJJ und HH.MM.SS.<p>Danach kommen die Messwerte für systolischen (SYS) und diastolischen (DIA) Blutdruck sowie Herzschlag (BPM).<p>Zum Schluss noch die Signalisierung für Unregelmäßig (IHB) und Ausgeblendet (INV) sowie ein optionaler Kommentar (MSG)."
	},
	"02-01-02": {
		"001": "Import von XML",
		"002": "Eine XML-Datei muss wie folgt aufgebaut sein:",
		"003": "Datensätze für Nutzer 1 befinden sich innerhalb des Bereiches \"U1\", für Nutzer 2 in \"U2\".<p>Jeder Datensatz befindet sich in einem \"record\" Bereich. Dieser enthält Datum (date) und Zeit (time) in der Form TT.MM.JJJJ und HH.MM.SS.<p>Danach kommen die Messwerte für systolischen (sys) und diastolischen (dia) Blutdruck sowie Herzschlag (bpm).<p>Zum Schluss noch die Signalisierung für Unregelmäßig (ihb) und Ausgeblendet (inv) sowie ein optionaler Kommentar (msg)."
	},
	"02-01-03": {
		"001": "Import von JSON",
		"002": "Eine JSON-Datei muss wie folgt aufgebaut sein:",
		"003": "Datensätze für Nutzer 1 befinden sich innerhalb des Bereiches \"U1\", für Nutzer 2 in \"U2\".<p>Jeder Datensatz befindet sich in einem \"{ }\" Bereich. Dieser enthält Datum (date) und Zeit (time) in der Form TT.MM.JJJJ und HH.MM.SS.<p>Danach kommen die Messwerte für systolischen (sys) und diastolischen (dia) Blutdruck sowie Herzschlag (bpm).<p>Zum Schluss noch die Signalisierung für Unregelmäßig (ihb) und Ausgeblendet (inv) sowie ein optionaler Kommentar (msg)."
	},
	"02-01-04": {
		"001": "Import von SQL",
		"002": "Eine SQL-Datei muss wie folgt aufgebaut sein:",
		"003": "Datensätze für Nutzer 1 befinden sich in der Tabelle \"U1\", für Nutzer 2 in \"U2\".<p>Diese enthält Datum und Zeit in der Form TT.MM.JJJJ und HH.MM.SS, Messwerte für systolischen und diastolischen Blutdruck sowie Herzschlag, die Signalisierung für Unregelmäßig und Ausgeblendet sowie einen optionaler Kommentar."
	},
	"02-02": {
		"001": "Daten Exportieren",
		"002": "Messwerte können in den Formaten <a href='02-02-01.html'>CSV</a>, <a href='02-02-02.html'>XML</a>, <a href='02-02-03.html'>JSON</a> und <a href='02-02-04.html'>SQL</a> zur Archivierung oder Weitergabe exportiert werden. Welches Format bevorzugt werden sollte hängt vom gewünschten Verwendungszweck ab.<h4>Export in Datei</h4>Wählen Sie im Export-Dialog den Pfad, wohin die Datei gespeichert werden soll. Standardmäßig ist der Dokumente-Pfad voreingestellt. Alle bereits dort existierenden Dateien im gewählten Dateiformat sollten angezeigt werden.<p>Geben Sie nun den gewünschten Dateinamen ein oder übernehmen Sie den vorgeschlagen Standardwert.<p>Speichern Sie Ihre Datensätze im gewählten Format ab."
	},
	"02-02-01": {
		"001": "Export nach CSV",
		"002": "Eine CSV-Datei eignet sich z.B. für folgende Einsatzfälle:",
		"003": "automatisierte Weiterverarbeitung durch Skripte bzw. Programme",
		"004": "manuelle Aufbereitung in einer Tabellenkalkulation"
	},
	"02-02-02": {
		"001": "Export nach XML",
		"002": "Eine XML-Datei eignet sich z.B. für folgende Einsatzfälle:",
		"003": "automatisierte Weiterverarbeitung durch Skripte bzw. Programme",
		"004": "interaktive Darstellung im Webbrowser"
	},
	"02-02-03": {
		"001": "Export nach JSON",
		"002": "Eine JSON-Datei eignet sich z.B. für folgende Einsatzfälle:",
		"003": "automatisierte Weiterverarbeitung durch Skripte bzw. Programme",
		"004": "bevorzugt für JavaScript"
	},
	"02-02-04": {
		"001": "Export nach SQL",
		"002": "Eine SQL-Datei eignet sich z.B. für folgende Einsatzfälle:",
		"003": "direkte Sicherung/Wiederherstellung für UBPM",
		"004": "externe Verarbeitung in Datenbankanwendungen"
	},
	"02-03": {
		"001": "Daten Drucken",
		"002": "Möchten Sie Ihre Daten dem behandelnden Arzt zur Auswertung vorlegen können Sie diese natürlich auch <a href='02-03-02.html'>ausdrucken</a>.<p>Um Papier zu sparen empfiehlt sich vor dem Druck eine <a href='02-03-01.html'>Vorschau</a> zu erzeugen und zu überprüfen.<p>Die Vorschau bzw. der Ausdruck entspricht immer der aktuell gewählten Darstellung. Schalten Sie daher über die Werkzeugleiste auf den gewünschten Nutzer um und stellen den zu betrachtenden Zeitraum ein bevor Sie die gewünschte Aktion durchführen."
	},
	"02-03-01": {
		"001": "Vorschau",
		"002": "Um sich vor dem Druck davon zu überzeugen, dass die Ausgabe auch wirklich der gewünschten Form entspricht, kann zunächst eine Vorschau der jeweiligen Ansicht erzeugt werden.",
		"003": "Entspricht die Ansicht dem gewünschten Ergebnis kann die Ausgabe auf den Drucker durch drücken des Druckersymbols rechts oben gestartet werden."
	},
	"02-03-02": {
		"001": "Drucken",
		"002": "Wählen Sie aus dem Druckdialog den gewünschten Drucker aus und ändern die Einstellungen bzw. Eigenschaften je nach Wunsch.<p>Nach einer kurzen Aufbereitungszeit startet die Ausgabe auf dem Drucker und die Ausdrucke können wenig später in Empfang genommen werden."
	},
	"03": {
		"001": "Geräte Erweiterungen",
		"002": "Das direkte auslesen der Messwerte aus dem Messgerät erfolgt über zusätzliche Erweiterungen. Um eine Erweiterung für ein bestimmtes Messgerät zu programmieren muss zunächst dessen Übertragungsprotokoll bekannt sein.<p>Um dieses zu ermitteln könnte so vorgegangen werden:",
		"003": "installieren der Hersteller Software und des Protokollanalysators Wireshark (https://wireshark.org)",
		"004": "einlesen der Messwerte vom Messgerät über die Hersteller Software und mitschneiden des Datenverkehrs in Wireshark",
		"005": "auswerten des gesammelten Datenverkehrs zwischen Computer und Messgerät",
		"006": "erkennen der gesendeten Befehle und Antworten",
		"007": "finden der Messwerte in den Antworten",
		"008": "nachbilden der Kommunikation über externe Werkzeuge wie z.B. hidapitester (https://github.com/todbot/hidapitester) bei USB-HID Geräten",
		"009": "programmieren einer Erweiterung basierend auf obigen Erkenntnissen",
		"010": "Klingt eigentlich ganz einfach, ist es aber meistens nicht. ;-)<p>Ich habe auch 1-2 Tage benötigt, bis ich mein M500IT ansprechen konnte - also Geduld und nicht gleich aufgeben!<p><h4>Hier daher noch ein paar Tipps:</h4><p>Die Werte vom Messgerät ablesen und von dezimal in hexadezimal umrechnen, da diese so im Datenmitschnitt besser gefunden werden können.<p>Eventuell muss auch noch ein bestimmter Wert addiert werden (z.B. 25 beim systolischen Blutdruck) um auf den erwarteten Wert zu kommen. Auch können sich Werte aus mehreren Bytes bzw. Bits zusammensetzen!<p>Nützliche hidapitester Befehle zum Beginn wären eventuell:",
		"011": "Die Werte müssen natürlich an das vorhandene Gerät angepasst werden: im Beispiel wäre 0590 die Hersteller-ID von OMRON und 0090 die Geräte-ID vom M400IT/M500IT. Es werden 9 Byte zum Messgerät gesendet und 25 als Antwort wieder ausgelesen.<p>Ich kann gerne bei Fragen unterstützen, aber ich kann keine Erweiterungen für Messgeräte programmieren, welche ich nicht besitze!<p>Sofern allerdings die Kommunikation per hidapitester funktioniert und die Daten in den Antworten gefunden wurden kann ich es blind versuchen und Sie testen.<p class='info'><b>Hinweis</b>: Ein USB-Gerät kann auch mittels usbip über das Internet freigegeben werden, damit ich darauf zugreifen kann."
	}
}
